{
"home_input1" : "Ищите известного вам поставщика услуг",

"menu_home" : "Главная",
"menu_history" : "Список полученных услуг",
"menu_update" : "Редактирование личных данных",
"menu_supplier" : "Данные для поставщиков услуг",
"menu_supplierlogin" : "Вход для поставщиков услуг",
"menu_coupons" : "Купоны",
"menu_logout" : "Выход",
"menu_connectedas" : "Подключение под именем",

"coupondetails_date" : "Действительно до",
"coupondetails_price" : "Цена",

"listmain_address" : "Адрес",
"listmain_phone" : "Телефон",
"listmain_cat" : "Категории",
"listmain_derug" : "Рейтинг",


"details_address" : "Адрес",
"details_phone" : "Телефон",
"details_cat" : "Категории",
"details_day" : "День",
"details_hour" : "Время",
"details_price" : "Цена",
"details_nis" : "Новых шекелей",
"details_derug" : "Рейтинг",




"appointments_day" : "День",
"appointments_week" : "Неделя",
"appointments_search" : "Поиск",
"appointments_startdate" : "Дата начала",
"appointments_enddate" : "Дата окончания",
"appointments_nomatches" : "Нет свободных временных промежутков для заказа очереди",
"appointments_sugtipul" : "Тип услуги",
"appointments_address" : "Адрес",
"appointments_phone" : "Телефон",
"appointments_date" : "Дата",
"appointments_hour" : "Время",

"updateinfo_fullname" : "Полное имя",
"updateinfo_phone" : "Телефон",
"updateinfo_password" : "Пароль",

"supplier_fullname" : "Полное имя",
"supplier_phone" : "Телефон",
"supplier_email" : "Электронная почта",
"supplier_desc" : "Содержание обращения",

"supplierlogin_username" : "Имя пользователя",
"supplierlogin_password" : "Пароль",


"suppliermain_address" : "Адрес",
"suppliermain_phone" : "Телефон",



"supplierpersonal_address" : "Адрес",
"supplierpersonal_area" : "Выберите район",
"supplierpersonal_haifa" : "Хайфа и Север",
"supplierpersonal_bearsheva" : "Беер Шева и Юг",
"supplierpersonal_shefela" : "Шфела",
"supplierpersonal_sharon" : "Шарон",
"supplierpersonal_telaviv" : "Тель Авив и Гуш Дан",
"supplierpersonal_jeruslem" : "Иерусалим и Иерусалимский округ",
"supplierpersonal_email" : "Электронная почта",
"supplierpersonal_phone" : "Телефон",
"supplierpersonal_video" : "Видеоролик",
"supplierpersonal_facebook" : "Фейсбук",
"supplierpersonal_waze" : "WAZE",

"supplierappoint_startdate" : "Дата начала",
"supplierappoint_enddate" : "Дата окончания",
"supplierappoint_nomatches" : "Нет свободных временных промежутков для заказа очереди",


"editfreeapp_starttime" : "Время начала",
"editfreeapp_endtime" : "Время окончания",


"editappoint_fullname" : "Полное имя",
"editappoint_phone" : "Телефон",
"editappoint_email" : "Адрес электронной почты",
"editappoint_date" : "Дата очереди",
"editappoint_starthour" : "Время начала",
"editappoint_endhour" : "Время окончания",
"editappoint_subcat" : "Тип процедуры",
"editappoint_desc" : "описание",



"register_fullname" : "Полное имя",
"register_phone" : "Телефон",
"register_area" : "Выберите район",
"register_haifa" : "Хайфа и Север",
"register_beersheva" : "Беер Шева и Юг",
"register_shefela" : "Шфела",
"register_sharon" : "Шарон",
"register_telaviv" : "Тель Авив и Гуш Дан",
"register_jeruslem" : "Иерусалим и Иерусалимский округ",
"register_email" : "Адрес электронной почты",
"register_password" : "Выберите пароль",

"login_email" : "Адрес электронной почты",
"login_password" : "Пароль",


"search_area" : "Выберите район",
"search_selectarea" : "Выберите район",
"search_haifa" : "Хайфа и Север",
"search_bearsheva" : "Беер Шева и Юг",
"search_shefela" : "Шфела",
"search_sharon" : "Шарон",
"search_telaviv" : "Тель Авив и Гуш Дан",
"search_jeruslem" : "Иерусалим и Иерусалимский округ",
"search_subcat" : "Тип процедуры",
"search_cat" : "Выберите категорию",
"search_appointment" : "Очередь",
"search_service" : "Поставщики услуг",
"search_date" : "Выберите дату",


"list_searchby" : "Поиск очереди по",
"list_location" : "Место",
"list_price" : "Цена",
"list_day" : "День",
"list_hour" : "Время",
"list_price" : "Цена",
"list_derug" : "Рейтинг",
"list_phone" : "Телефон",
"list_cat" : "Категории",


"modal_close" : "Чтобы закрыть",

"commentmodal_desc" : "Текст отзыва",


"ratings_desc" : "Расскажите нам свободно",
"ratings_send" : "Отправьте",


"searchappoint_searchat" : "Ищите по очереди",
"searchappoint_subcat" : "Тип процедуры",
"searchappoint_date" : "Выберите дату",
"searchappoint_day" : "День",
"searchappoint_hour" : "Время",
"searchappoint_nis" : "Новых шекелей",
"searchappoint_price" : "Цена",
"searchappoint_derug" : "Рейтинг",


"addappoint_activetime" : "Введение часов работы",
"addappoint_newapp" : "Введение новой очереди",
"addappoint_fullname" : "Полное имя",
"addappoint_phone" : "Телефон",
"addappoint_email" : "Электронная почта",
"addappoint_desc" : "Данные",
"addappoint_date" : "Дата",
"addappoint_subcat" : "Тип процедуры",
"addappoint_cat" : "Выберите категорию",


"orderedappoinment_day" : "День",
"orderedappoinment_week" : "Неделя",
"orderedappoinment_search" : "Поиск",
"orderedappoinment_startdate" : "Дата начала",
"orderedappoinment_enddate" : "Дата окончания",
"orderedappoinment_nomatches" : "Нет свободных временных промежутков для заказа очереди",
"orderedappoinment_fullname" : "Полное имя",
"orderedappoinment_email" : "Адрес электронной почты",
"orderedappoinment_date" : "Дата очереди",
"orderedappoinment_starthour" : "Время начала",
"orderedappoinment_endhour" : "Время окончания",


"search_modal_searchat" : "Ищите очередь в",
"search_modal_subcat" : "Тип процедуры",
"search_modal_selectdate" : "Выберите дату",
"search_modal_day" : "День",
"search_modal_hour" : "Время",
"search_modal_price" : "Цена",
"search_modal_nis" : "Новых шекелей",
"search_modal_derug" : "Рейтинг",



"sendbuttonimage" : "russian/sendbt.png",
"searchbuttonimage1" : "russian/search_button.png",
"searchbuttonimage2" : "russian/search_button_1.png",
"searchbuttonimage3" : "russian/search_button.jpg",

"searchtorimage" : "russian/search_tor.png",
"ordertorimage" : "russian/order.png",
"reviewtextimage" : "russian/review_text.jpg",
"addtorimage" : "russian/add_tor.png",

"issuedetails" : "russian/issue_details.png",
"logout" : "russian/logout.png",
"uploadimage" : "russian/upload_image.jpg",
"addtorimagepng" : "russian/addtor.png",
"closeimage" : "russian/close.jpg",
"delimage" : "russian/del.png",
"deletetorimage" : "russian/deletetor.png",
"savedetailsimage" : "russian/savedetails.png",
"editimage" : "russian/edit.png",

"registerorloginfirstctrl" : "Сначала необходимо подключиться или зарегистрироваться",
"membersloginctrl" : "Вход для абонентов",
"newmembersregisterctrl" : "Регистрация для новых абонентов",
"canceltextctrl" : "Отмена",
"loadingtextctrl" : "Загрузка",
"nomatchestryagainctrl" : "Результаты не найдены, попробуйте еще раз",
"inputsuppliernamectrl" : "Необходимо ввести имя/название поставщика услуг",
"selectareactrl" : "Необходимо выбрать район",
"selectpickcatctrl" : "Необходимо выбрать категорию",
"daysoftheweek1ctrl" : "Воскресенье",
"daysoftheweek2ctrl" : "Понедельник",
"daysoftheweek3ctrl" : "Вторник",
"daysoftheweek4ctrl" : "Среда",
"daysoftheweek5ctrl" : "Четверг",
"daysoftheweek6ctrl" : "Пятница",
"daysoftheweek7ctrl" : "Суббота",
"confirmtorctrl" : "Подтвердить назначение очереди?",
"oktextctrl" : "Подтверждение",
"thankyoutorctrl" : "Спасибо, ваша очередь заказана успешно.",
"inputcommenttextctrl" : "Введите текст отзыва",
"sendtextctrl" : "Отправка",
"thankyoucommentctrl" : "Ваш отзыв принят успешно, персонал MAMI благодарит вас",
"cantratetwicectrl" : "Вы не можете дважды поставить оценку этому бизнесу",
"inputderugctrl" : "Введите оценку",
"thankyouderugctrl" : "Спасибо, ваша оценка принята успешно",
"selectderugctrl" : "Необходимо выбрать оценку",
"novideofoundtrylaterctrl" : "Видеоролик не найден. Попробуйте еще раз через некоторое время",
"nomatchestrydifftimehourctrl" : "Результаты не найдены, попробуйте еще раз в другой день или час",
"selectcategoryctrl" : "Выберите категорию",
"inputstartdatectrl" : "Необходимо ввести дату начала",
"inputenddatectrl" : "Необходимо ввести дату окончания",
"deletetorconfirmctrl" : "Подтвердить удаление очереди?",
"confirmchangetorctrl" : "Подтвердить изменение очереди?",
"inputfullnamectrl" : "Необходимо ввести полное имя",
"inputphonectrl" : "Необходимо ввести номер телефона",
"inputemailctrl" : "Необходимо ввести адрес электронной почты",
"formsentctrl" : "Форма отправлена успешно",
"inputusernamectrl" : "Необходимо ввести имя пользователя",
"inputpasswordctrl" : "Необходимо ввести пароль",
"wrongusernamectrl" : "Ошибка в имени пользователя или в пароле, необходимо исправить",
"selectoptionctrl" : "Выберите вариант:",
"cameractrl" : "Фотоаппарат",
"galleryctrl" : "Галерея фотографий",
"detailssavedctrl" : "Данные сохранены успешно",
"notordatefoundctrl" : "В выбранный вами день очередь не найдена",
"activitytimectrl" : "Часы работы бизнеса",
"tortextctrl" : "Очередь",
"confirmdeletectrl" : "Подтвердить удаление",
"okdeletedctrl" : "Удалено успешно",
"onedayctrl" : "Воскресенье",
"twodayctrl" : "Понедельник",
"threedayctrl" : "Вторник",
"fourdayctrl" : "Среда",
"fivedayctrl" : "Четверг",
"sixdayctrl" : "Пятница",
"sevendayctrl" : "Суббота",
"tortimeconflictctrl" : "На данные часы работы выпадает уже заказанная услуга. Пожалуйста, попробуйте выбрать другие.",
"torchangedfreectrl" : "Очередь освободилась. Хотите заказать новую очередь или возвратиться к расписанию очередей?",
"backtorimctrl" : "Назад к очередям",
"newtorctrl" : "Новая очередь",
"selectsubcatctrl" : "Необходимо выбрать вид услуги",
"selecttimectrl" : "Выберите время",
"inputtordatectrl" : "Необходимо выбрать желательную дату для очереди",
"inputstarttimectrl" : "Необходимо ввести время начала",
"inputendtimectrl" : "Необходимо ввести время окончания",
"cantaddctrl" : "Невозможно добавить",
"previousdayctrl" : "на предыдущий день",
"starttimecantbelargectrl" : "Время окончания не может предшествовать времени начала",
"toraddokctrl" : "Очередь добавлена успешно",
"cantaddtortimedatectrl" : "Невозможно добавить выбранные очередь, дату и время не в часы работы поставщика",
"cantaddtortimedatectrl1" : "Невозможно заказать очередь, выбраны дата и время вне рабочих часов",
"thankyouderugredirectctrl" : "Большое спасибо, контактные данные приняты успешно, переводим вас на главную страницу",
"notratedquestionctrl" : "Вы не дали оценку по вопросу номер ",
"fillinemailctrl" : "Необходимо ввести адрес электронной почты",
"fillinpasswordctrl" : "Необходимо ввести пароль",
"wrongdetailsctrl" : "Ошибка в данных подключения, попытайтесь еще раз",
"fillinfullnamectrl" : "Необходимо ввести полное имя",
"fillinphonectrl" : "Необходимо ввести номер телефона",
"emailinusectrl" : "Этот адрес электронной почты уже используется, необходимо ввести другой адрес",
"welcomeinctrl" : "Добро пожаловать",
"updatedokctrl" : "Уточнение прошло успешно",
"fillinaddressctrl" : "Необходимо ввести адрес  ",
"supplierlogin_forgotpasstext" : "Я забыл (-а) пароль",
"pleaseagreectrl" : "Необходимо подтвердить",
"termsofusectrl" : "Условия пользования",
"agreetermsctrl" : "Необходимо подтвердить, что вы согласны с условиями пользования",
"cantaddtorpassedctrl" : "Невозможен поиск очереди на прошедшую дату",
"usernamenotfoundtryagainctrl" : "Имя пользователя не найдено, попробуйте еще раз",
"usernotfoundtryagainctrl" : "Пользователь не найден, попробуйте еще раз",

"addoktextctrl" : "успешно добавлен",
"pluraladdoktext" : "Успешно добавлен",

"nofuturetortext" : "Дополнительные часы работы не указаны",
"exitapptextctrl" : "Вы уверены, что хотите выйти из приложения?"

}